<?xml version="1.0" encoding="UTF-8" standalone="no"?>
<!-- Created with Inkscape (http://www.inkscape.org/) -->
<svg id="svg4658" xmlns:rdf="http://www.w3.org/1999/02/22-rdf-syntax-ns#" xmlns="http://www.w3.org/2000/svg" height="88mm" width="63mm" version="1.1" xmlns:cc="http://creativecommons.org/ns#" xmlns:xlink="http://www.w3.org/1999/xlink" viewBox="0 0 223.22835 311.81102" xmlns:dc="http://purl.org/dc/elements/1.1/">
 <defs id="defs4660">
  <pattern id="pattern4400-334" xlink:href="#pattern4987-43" patternTransform="matrix(-.11060 .11060 -.11060 -.11060 -1620.8 -1570.9)"/>
  <pattern id="pattern4987-43" xlink:href="#pattern13545-1-9-489" patternTransform="matrix(-.11060 .11060 -.11060 -.11060 -174.71 -558.27)"/>
  <pattern id="pattern13545-1-9-489" xlink:href="#pattern13024-5-4-804-5" patternTransform="matrix(-.11060 .11060 -.11060 -.11060 -711.87 -706.68)"/>
  <pattern id="pattern13024-5-4-804-5" width="108.6184" patternUnits="userSpaceOnUse" patternTransform="translate(-254.02 74.426)" height="110.74085">
   <path id="path6624-2" d="m-1016 25.721-10.764 16.121 7.1773 18.006-18.658-5.2558-14.907 12.39-0.767-19.369-16.39-10.349 18.184-6.7148 4.7773-18.786 12.005 15.219z" transform="translate(1070.4 -11.764)" fill="#131f67"/>
   <path id="path6626-0" transform="matrix(.86603 .5 -.5 .86603 946.34 568.73)" fill="#131f67" d="m-1016 25.721-10.764 16.121 7.1773 18.006-18.658-5.2558-14.907 12.39-0.767-19.369-16.39-10.349 18.184-6.7148 4.7773-18.786 12.005 15.219z"/>
   <path id="path6628-5" d="m-1016 25.721-10.764 16.121 7.1773 18.006-18.658-5.2558-14.907 12.39-0.767-19.369-16.39-10.349 18.184-6.7148 4.7773-18.786 12.005 15.219z" transform="translate(1124.7 -11.764)" fill="#131f67"/>
   <path id="path6630-5" transform="matrix(.86603 .5 -.5 .86603 1000.6 568.73)" fill="#131f67" d="m-1016 25.721-10.764 16.121 7.1773 18.006-18.658-5.2558-14.907 12.39-0.767-19.369-16.39-10.349 18.184-6.7148 4.7773-18.786 12.005 15.219z"/>
  </pattern>
 </defs>
 <metadata id="metadata4663">
  <rdf:RDF>
   <cc:Work rdf:about="">
    <dc:format>image/svg+xml</dc:format>
    <dc:type rdf:resource="http://purl.org/dc/dcmitype/StillImage"/>
    <dc:title/>
   </cc:Work>
  </rdf:RDF>
 </metadata>
 <g id="layer1" transform="translate(1005.9 17.829)">
  <g id="layer1-7" transform="translate(-1266.3 -388.1)">
   <g id="g13552" transform="translate(520.05 -131.04)">
    <rect id="rect13537" rx="10.63" ry="10.63" height="310.81" width="222.23" stroke="#000" y="501.82" x="-259.11" fill="#fff"/>
    <rect id="rect13539" ry="0" height="286.64" width="197.05" stroke="#131f67" stroke-linecap="round" y="513.9" x="-246.53" stroke-width="4.9524" fill="none"/>
    <rect id="rect13541" height="278.91" width="188.28" stroke="#131f67" stroke-linecap="round" y="517.77" x="-242.14" fill="url(#pattern4400-334)"/>
   </g>
  </g>
 </g>
</svg>
